<svg id="Layer_1" data-name="Layer 1" xmlns="http://www.w3.org/2000/svg" viewBox="0 0 225 8">
  <defs>
    <style>
      .cls-1 {
        fill: #fff;
      }
    </style>
  </defs>
  <title>seta2</title>
  <polygon class="cls-1" points="111.67 8 0 0.33 0 18 225 18 225 0 111.67 8"/>
</svg>
